\relax 
\providecommand*{\memsetcounter}[2]{}
\catcode`"\active
\select@language{brazilian}
\@writefile{toc}{\select@language{brazilian}}
\@writefile{lof}{\select@language{brazilian}}
\@writefile{lot}{\select@language{brazilian}}
\@writefile{toc}{\contentsline {part}{K — O escuro da semente}{5}}
\@input{TEXT.aux}
\@input{INPUTS.aux}
\ttl@finishall
\@input{PUBLICIDADE.aux}
\memsetcounter{lastsheet}{372}
\memsetcounter{lastpage}{372}
