\relax 
\@writefile{toc}{\contentsline {part}{ \} Primeiro Passo\hfill \penalty -\@M \par \unhbox \voidb@x Ó: Do Céu e sua voz\hfill \penalty -\@M \par \unhbox \voidb@x de Água rápida}{37}}
\@writefile{toc}{\contentsline {part}{ \}\} Segundo Passo\hfill \penalty -\@M \par \unhbox \voidb@x K: Aqueles dois Lá}{45}}
\@writefile{toc}{\contentsline {part}{ \}\}\}Terceiro Passo\hfill \penalty -\@M \par \unhbox \voidb@x OO: Aquela fosse\hfill \penalty -\@M \par \unhbox \voidb@x a Noite da Semente}{49}}
\@writefile{toc}{\contentsline {part}{ \}\}\}\}\hfill \penalty -\@M \par \unhbox \voidb@x Diálogo dos alimentos do ser}{65}}
\@writefile{toc}{\contentsline {part}{ \}\}\}\}\}\hfill \penalty -\@M \par \unhbox \voidb@x O omem de areia}{163}}
\@writefile{toc}{\contentsline {part}{ \}\}\}\}\}\}\hfill \penalty -\@M \par \unhbox \voidb@x A Visão do ssaKil}{193}}
\@writefile{toc}{\contentsline {part}{\}\}\}\}\}\}\}\hfill \penalty -\@M \par \unhbox \voidb@x Na Penumbra Andara\hfill \penalty -\@M \par \unhbox \voidb@x pré-história do Sono}{331}}
\@setckpt{TEXT}{
\setcounter{page}{362}
\setcounter{equation}{0}
\setcounter{enumi}{0}
\setcounter{enumii}{0}
\setcounter{enumiii}{0}
\setcounter{enumiv}{0}
\setcounter{footnote}{0}
\setcounter{mpfootnote}{0}
\setcounter{@memmarkcntra}{0}
\setcounter{storedpagenumber}{1}
\setcounter{book}{0}
\setcounter{part}{0}
\setcounter{chapter}{0}
\setcounter{section}{0}
\setcounter{subsection}{0}
\setcounter{subsubsection}{0}
\setcounter{paragraph}{0}
\setcounter{subparagraph}{0}
\setcounter{@ppsavesec}{0}
\setcounter{@ppsaveapp}{0}
\setcounter{vslineno}{0}
\setcounter{poemline}{0}
\setcounter{modulo@vs}{0}
\setcounter{memfvsline}{0}
\setcounter{verse}{0}
\setcounter{chrsinstr}{0}
\setcounter{poem}{0}
\setcounter{newflo@tctr}{4}
\setcounter{@contsubnum}{0}
\setcounter{maxsecnumdepth}{1}
\setcounter{sidefootnote}{0}
\setcounter{pagenote}{0}
\setcounter{pagenoteshadow}{0}
\setcounter{memfbvline}{0}
\setcounter{bvlinectr}{0}
\setcounter{cp@cntr}{0}
\setcounter{ism@mctr}{0}
\setcounter{xsm@mctr}{0}
\setcounter{csm@mctr}{0}
\setcounter{ksm@mctr}{0}
\setcounter{xksm@mctr}{0}
\setcounter{cksm@mctr}{0}
\setcounter{msm@mctr}{0}
\setcounter{xmsm@mctr}{0}
\setcounter{cmsm@mctr}{0}
\setcounter{bsm@mctr}{0}
\setcounter{workm@mctr}{0}
\setcounter{sheetsequence}{362}
\setcounter{lastsheet}{372}
\setcounter{lastpage}{372}
\setcounter{figure}{0}
\setcounter{lofdepth}{1}
\setcounter{table}{0}
\setcounter{lotdepth}{1}
\setcounter{DefaultLines}{2}
\setcounter{L@lines}{0}
\setcounter{lips@count}{0}
\setcounter{pp@next@reset}{0}
\setcounter{@sectionNumCenter}{0}
\setcounter{ContinuedFloat}{0}
\setcounter{PWSTtable}{0}
}
